{
  "content": [
    {
      "id": "0SERIES01",
      "libraryId": "0LIB0001",
      "name": "Yotsuba&!",
      "url": "/data/manga/yotsuba",
      "created": "2024-01-01T10:00:00Z",
      "lastModified": "2024-06-01T12:30:45.123Z",
      "fileLastModified": "2024-05-31T09:00:00Z",
      "booksCount": 15,
      "booksReadCount": 5,
      "booksUnreadCount": 9,
      "booksInProgressCount": 1,
      "metadata": {
        "status": "ONGOING",
        "statusLock": false,
        "created": "2024-01-01T10:00:00Z",
        "lastModified": "2024-06-01T12:30:45.123Z",
        "title": "Yotsuba&!",
        "titleLock": false,
        "titleSort": "Yotsuba&!",
        "titleSortLock": false,
        "summary": "The adventures of Yotsuba.",
        "summaryLock": false,
        "readingDirection": "RIGHT_TO_LEFT",
        "readingDirectionLock": false,
        "publisher": "ASCII Media Works",
        "publisherLock": false,
        "ageRating": null,
        "ageRatingLock": false,
        "language": "ja",
        "languageLock": false,
        "genres": ["Comedy", "Slice of Life"],
        "genresLock": false,
        "tags": [],
        "tagsLock": false,
        "totalBookCount": 15,
        "totalBookCountLock": false,
        "sharingLabels": [],
        "sharingLabelsLock": false,
        "links": [],
        "linksLock": false,
        "alternateTitles": [],
        "alternateTitlesLock": false
      },
      "booksMetadata": {
        "authors": [],
        "tags": [],
        "releaseDate": null,
        "summary": "",
        "summaryNumber": "",
        "created": "2024-01-01T10:00:00Z",
        "lastModified": "2024-06-01T12:30:45.123Z"
      },
      "deleted": false,
      "oneshot": false
    },
    {
      "id": "0SERIES02",
      "libraryId": "0LIB0002",
      "name": "The Pragmatic Programmer",
      "url": "/data/books/pragmatic",
      "created": "2024-02-01T10:00:00Z",
      "lastModified": "2024-06-02T12:30:45Z",
      "fileLastModified": "2024-05-31T09:00:00Z",
      "booksCount": 1,
      "booksReadCount": 0,
      "booksUnreadCount": 1,
      "booksInProgressCount": 0,
      "metadata": {
        "status": "ENDED",
        "statusLock": false,
        "created": "2024-02-01T10:00:00Z",
        "lastModified": "2024-06-02T12:30:45Z",
        "title": "The Pragmatic Programmer",
        "titleLock": false,
        "titleSort": "Pragmatic Programmer",
        "titleSortLock": false,
        "summary": "",
        "summaryLock": false,
        "readingDirection": "LEFT_TO_RIGHT",
        "readingDirectionLock": false,
        "publisher": "Addison-Wesley",
        "publisherLock": false,
        "ageRating": null,
        "ageRatingLock": false,
        "language": "en",
        "languageLock": false,
        "genres": [],
        "genresLock": false,
        "tags": [],
        "tagsLock": false,
        "totalBookCount": null,
        "totalBookCountLock": false,
        "sharingLabels": [],
        "sharingLabelsLock": false,
        "links": [],
        "linksLock": false,
        "alternateTitles": [],
        "alternateTitlesLock": false
      },
      "booksMetadata": {
        "authors": [],
        "tags": [],
        "releaseDate": null,
        "summary": "",
        "summaryNumber": "",
        "created": "2024-02-01T10:00:00Z",
        "lastModified": "2024-06-02T12:30:45Z"
      },
      "deleted": false,
      "oneshot": false
    }
  ],
  "pageable": {
    "pageNumber": 0,
    "pageSize": 20,
    "sort": { "empty": false, "sorted": true, "unsorted": false },
    "offset": 0,
    "paged": true,
    "unpaged": false
  },
  "totalPages": 3,
  "totalElements": 42,
  "last": false,
  "size": 20,
  "number": 0,
  "sort": { "empty": false, "sorted": true, "unsorted": false },
  "first": true,
  "numberOfElements": 2,
  "empty": false
}
